<svg width="97" height="97" viewBox="0 0 97 97" fill="none" xmlns="http://www.w3.org/2000/svg">
<path d="M50.0838 13.2559L48.5135 12L47.6543 12.7165C39.7976 19.2582 29.8382 22.8612 19.6111 22.8612H11.377V33.8199C11.377 56.7613 25.7891 77.6423 47.2439 85.7804C47.6282 85.9259 48.029 86 48.4367 86C48.8457 86 49.2465 85.9259 49.6308 85.7804C71.0829 77.6437 85.4964 56.7613 85.4964 33.8199V22.8612H77.4668C67.5526 22.8612 57.8279 19.4504 50.0838 13.2559ZM82.7512 33.8199C82.7512 55.6289 69.0501 75.4792 48.6576 83.2123C48.5149 83.2686 48.3557 83.2645 48.2143 83.2137C27.8219 75.4778 14.1221 55.6289 14.1221 33.8199V25.6064H19.6111C30.1045 25.6064 40.3329 22.0363 48.5382 15.5344C56.7394 22.0322 67.0036 25.6064 77.4668 25.6064H82.7512V33.8199Z" fill="#FE839A"/>
<path d="M82.7512 33.8199C82.7512 55.6289 69.0501 75.4792 48.6576 83.2123C48.5149 83.2686 48.3557 83.2645 48.2143 83.2137C27.8219 75.4778 14.1221 55.6289 14.1221 33.8199V25.6064H19.6111C30.1045 25.6064 40.3329 22.0363 48.5382 15.5344C56.7394 22.0322 67.0036 25.6064 77.4668 25.6064H82.7512V33.8199Z" fill="#FE839A"/>
<path d="M67.1875 39.0181C66.5797 39.0181 65.9719 39.0696 65.3687 39.1743C63.9391 30.1868 56.1531 23.3931 46.875 23.3931C37.5656 23.3931 29.8406 30.054 28.3797 39.0962C22.9625 39.7446 18.75 44.3681 18.75 49.9556C18.75 55.9853 23.6578 60.8931 29.6875 60.8931H43.75V73.3931H53.125V60.8931H67.1875C73.2172 60.8931 78.125 55.9853 78.125 49.9556C78.125 43.9259 73.2172 39.0181 67.1875 39.0181ZM50 70.2681H46.875V45.2681H43.0234C42.5625 45.2681 42.1875 44.8931 42.1875 44.4321C42.1875 44.2665 42.2359 44.1056 42.3281 43.9681L47.3094 36.4978C47.8125 35.7415 49.0641 35.7415 49.5672 36.4978L54.5484 43.9681C54.6406 44.1056 54.6891 44.2649 54.6891 44.4321C54.6875 44.8931 54.3125 45.2681 53.8516 45.2681H50V70.2681ZM67.1875 57.7681H53.125V48.3931H53.8516C56.0344 48.3931 57.8125 46.6149 57.8125 44.4321C57.8125 43.6478 57.5828 42.8884 57.1469 42.2353L52.1656 34.7649C51.3328 33.5149 49.9391 32.7681 48.4375 32.7681C46.9359 32.7681 45.5422 33.5149 44.7078 34.7634L39.7266 42.2337C39.2922 42.8884 39.0625 43.6478 39.0625 44.4321C39.0625 46.6149 40.8406 48.3931 43.0234 48.3931H43.75V57.7681H29.6875C25.3797 57.7681 21.875 54.2634 21.875 49.9556C21.875 45.6493 25.3766 42.1446 29.6766 42.1446C29.6766 42.1446 29.6781 42.1446 29.6797 42.1446L31.1875 42.229L31.3234 40.7259C32.0516 32.6259 38.7375 26.5181 46.875 26.5181C55.1344 26.5181 61.9766 32.9821 62.4531 41.2337L62.5734 43.3212L64.5406 42.6149C65.4094 42.3024 66.3016 42.1431 67.1875 42.1431C71.4953 42.1431 75 45.6478 75 49.9556C75 54.2634 71.4953 57.7681 67.1875 57.7681Z" fill="white"/>
<path d="M67.1875 57.7681H53.125V48.3931H53.8516C56.0344 48.3931 57.8125 46.6149 57.8125 44.4321C57.8125 43.6478 57.5828 42.8884 57.1469 42.2353L52.1656 34.7649C51.3328 33.5149 49.9391 32.7681 48.4375 32.7681C46.9359 32.7681 45.5422 33.5149 44.7078 34.7634L39.7266 42.2337C39.2922 42.8884 39.0625 43.6478 39.0625 44.4321C39.0625 46.6149 40.8406 48.3931 43.0234 48.3931H43.75V57.7681H29.6875C25.3797 57.7681 21.875 54.2634 21.875 49.9556C21.875 45.6493 25.3766 42.1446 29.6766 42.1446H29.6797L31.1875 42.229L31.3234 40.7259C32.0516 32.6259 38.7375 26.5181 46.875 26.5181C55.1344 26.5181 61.9766 32.9821 62.4531 41.2337L62.5734 43.3212L64.5406 42.6149C65.4094 42.3024 66.3016 42.1431 67.1875 42.1431C71.4953 42.1431 75 45.6478 75 49.9556C75 54.2634 71.4953 57.7681 67.1875 57.7681Z" fill="white"/>
<path d="M50 70.2681H46.875V45.2681H43.0234C42.5625 45.2681 42.1875 44.8931 42.1875 44.4321C42.1875 44.2665 42.2359 44.1056 42.3281 43.9681L47.3094 36.4978C47.8125 35.7415 49.0641 35.7415 49.5672 36.4978L54.5484 43.9681C54.6406 44.1056 54.6891 44.2649 54.6891 44.4321C54.6875 44.8931 54.3125 45.2681 53.8516 45.2681H50V70.2681Z" fill="white"/>
<path d="M67.1875 39.0181C66.5797 39.0181 65.9719 39.0696 65.3687 39.1743C63.9391 30.1868 56.1531 23.3931 46.875 23.3931C37.5656 23.3931 29.8406 30.054 28.3797 39.0962C22.9625 39.7446 18.75 44.3681 18.75 49.9556C18.75 55.9853 23.6578 60.8931 29.6875 60.8931H43.75V73.3931H53.125V60.8931H67.1875C73.2172 60.8931 78.125 55.9853 78.125 49.9556C78.125 43.9259 73.2172 39.0181 67.1875 39.0181ZM50 70.2681H46.875V45.2681H43.0234C42.5625 45.2681 42.1875 44.8931 42.1875 44.4321C42.1875 44.2665 42.2359 44.1056 42.3281 43.9681L47.3094 36.4978C47.8125 35.7415 49.0641 35.7415 49.5672 36.4978L54.5484 43.9681C54.6406 44.1056 54.6891 44.2649 54.6891 44.4321C54.6875 44.8931 54.3125 45.2681 53.8516 45.2681H50V70.2681ZM67.1875 57.7681H53.125V48.3931H53.8516C56.0344 48.3931 57.8125 46.6149 57.8125 44.4321C57.8125 43.6478 57.5828 42.8884 57.1469 42.2353L52.1656 34.7649C51.3328 33.5149 49.9391 32.7681 48.4375 32.7681C46.9359 32.7681 45.5422 33.5149 44.7078 34.7634L39.7266 42.2337C39.2922 42.8884 39.0625 43.6478 39.0625 44.4321C39.0625 46.6149 40.8406 48.3931 43.0234 48.3931H43.75V57.7681H29.6875C25.3797 57.7681 21.875 54.2634 21.875 49.9556C21.875 45.6493 25.3766 42.1446 29.6766 42.1446C29.6766 42.1446 29.6781 42.1446 29.6797 42.1446L31.1875 42.229L31.3234 40.7259C32.0516 32.6259 38.7375 26.5181 46.875 26.5181C55.1344 26.5181 61.9766 32.9821 62.4531 41.2337L62.5734 43.3212L64.5406 42.6149C65.4094 42.3024 66.3016 42.1431 67.1875 42.1431C71.4953 42.1431 75 45.6478 75 49.9556C75 54.2634 71.4953 57.7681 67.1875 57.7681Z" fill="#002653"/>
<path d="M81.4844 12.4554C71.6109 12.4554 61.9266 9.05851 54.2156 2.88976L52.1469 1.23507C49.9984 -0.483676 46.6797 -0.399301 44.6234 1.43039C36.6234 8.53976 26.325 12.4554 15.6234 12.4554H0V31.1804C0 59.8788 18.0281 85.996 44.8609 96.1741C46.0078 96.6085 47.2109 96.8304 48.4375 96.8304C49.6641 96.8304 50.8672 96.6085 52.0141 96.1741C78.8469 85.996 96.875 59.8788 96.875 31.1804V12.4554H81.4844ZM93.75 31.1804C93.75 58.5866 76.5312 83.5319 50.9063 93.2538C49.3219 93.8523 47.5531 93.8523 45.9688 93.2538C20.3438 83.5319 3.125 58.5866 3.125 31.1804V15.5804H15.6234C27.0906 15.5804 38.1266 11.3835 46.6984 3.76476C47.6547 2.91632 49.1937 2.87414 50.1953 3.67414L52.2641 5.33039C60.5266 11.9398 70.9047 15.5804 81.4844 15.5804H93.75V31.1804Z" fill="#002653"/>
<path d="M50.3125 7.771L48.525 6.34131L47.5469 7.15693C38.6031 14.6038 27.2656 18.7054 15.6234 18.7054H6.25V31.1804C6.25 57.296 22.6563 81.0663 47.0797 90.3304C47.5172 90.496 47.9734 90.5804 48.4375 90.5804C48.9031 90.5804 49.3594 90.496 49.7969 90.3304C74.2172 81.0679 90.625 57.296 90.625 31.1804V18.7054H81.4844C70.1984 18.7054 59.1281 14.8226 50.3125 7.771ZM87.5 31.1804C87.5 56.0069 71.9031 78.6038 48.6891 87.4069C48.5266 87.471 48.3453 87.4663 48.1844 87.4085C24.9703 78.6022 9.375 56.0069 9.375 31.1804V21.8304H15.6234C27.5687 21.8304 39.2125 17.7663 48.5531 10.3647C57.8891 17.7616 69.5734 21.8304 81.4844 21.8304H87.5V31.1804Z" fill="#002653"/>
<path d="M80.1733 41.8305L83.2343 42.4555C83.4515 41.393 83.639 40.3227 83.7936 39.2414L80.7015 38.793C80.553 39.8133 80.3765 40.8258 80.1733 41.8305Z" fill="#002653"/>
<path d="M59.9732 20.6587L58.7764 23.5462C65.9686 26.5243 73.5279 28.0493 81.2498 28.0806V31.1806C81.2498 32.7009 81.1842 34.2399 81.0529 35.7587L84.1654 36.0274C84.3045 34.4212 84.3748 32.7899 84.3748 31.1806V24.9556H81.4842C74.0936 24.9556 66.8561 23.5103 59.9732 20.6587Z" fill="#002653"/>
</svg>
