<svg width="88" height="88" viewBox="0 0 88 88" fill="none" xmlns="http://www.w3.org/2000/svg">
<path fill-rule="evenodd" clip-rule="evenodd" d="M32.7344 54.7344C44.8848 54.7344 54.7344 44.8848 54.7344 32.7344C54.7344 20.584 44.8848 10.7344 32.7344 10.7344C20.584 10.7344 10.7344 20.584 10.7344 32.7344C10.7344 44.8848 20.584 54.7344 32.7344 54.7344ZM27.7344 36.7344L30.2344 38.7344L26.2344 48.7344C23.2344 47.2344 17.0347 43.1343 16.2344 38.7344C15.2344 33.2344 14.2344 27.7344 19.2344 22.7344C20.1348 21.834 20.8569 21.0469 21.4883 20.3589C24.3628 17.2266 25.3555 16.1445 32.7344 15.7344C39.9346 15.3345 45.0679 20.2344 46.7344 22.7344C47.9009 24.9014 50.2344 29.8345 50.2344 32.2344C50.2344 35.2344 48.2344 41.2344 46.2344 44.2344C44.6343 46.6343 40.9009 48.2344 39.2344 48.7344L35.2344 38.7344C36.5679 38.0679 39.2344 36.0342 39.2344 33.2344C39.2344 29.7344 35.7344 26.7344 34.2344 26.7344C32.7344 26.7344 26.7344 27.7344 26.7344 29.7344C26.7344 31.3345 27.4009 35.0679 27.7344 36.7344Z" fill="#F5C885"/>
<path d="M51.5802 14.0145C41.2224 3.65664 24.3708 3.65664 14.013 14.0145C3.65518 24.3707 3.65518 41.2223 14.013 51.5785C19.1917 56.7573 25.9942 59.3466 32.7964 59.3466C39.5986 59.3466 46.4011 56.7573 51.5799 51.5785C61.938 41.2226 61.938 24.3707 51.5802 14.0145ZM49.3708 49.3691C40.2339 58.5091 25.3596 58.5091 16.2227 49.3691C7.0858 40.2307 7.0858 25.3626 16.2227 16.2241C20.7911 11.6541 26.7939 9.36977 32.7967 9.36977C38.7995 9.36977 44.8024 11.6541 49.3708 16.2241C58.5077 25.3626 58.5077 40.2307 49.3708 49.3691Z" fill="#002653"/>
<path d="M85.333 74.3498L69.637 57.6717C70.0198 57.0233 70.2942 56.3202 70.3123 55.5467C70.3698 53.067 68.0867 50.7127 65.6311 50.6592C64.8833 50.643 64.1908 50.8689 63.5442 51.1998L61.3633 48.8817C68.3955 36.3786 66.6286 20.2248 55.9998 9.59484C43.2067 -3.19828 22.3877 -3.19828 9.59484 9.59484C-3.19828 22.3892 -3.19828 43.2055 9.59484 55.9998C15.9914 62.3964 24.3958 65.5945 32.7973 65.5945C39.0008 65.5945 45.2005 63.8383 50.5977 60.3508L52.2627 62.1058C52.0098 62.6536 51.8577 63.2458 51.8433 63.867C51.7852 66.3952 54.1127 68.753 56.6223 68.753C57.1817 68.753 57.7402 68.6455 58.2683 68.4358L74.0873 85.1042C75.5248 86.6058 77.4595 87.4555 79.5377 87.5014C79.5958 87.5014 79.6536 87.503 79.7086 87.503C81.7227 87.503 83.627 86.7386 85.0858 85.3408C88.1833 82.373 88.2902 77.4395 85.333 74.3498ZM11.8039 53.7902C0.228593 42.2148 0.228593 23.3795 11.8039 11.8042C17.5933 6.01797 25.1952 3.12328 32.797 3.12328C40.3989 3.12328 48.0008 6.01797 53.7902 11.8039C65.3655 23.3792 65.3655 42.2145 53.7902 53.7898C42.2148 65.3639 23.3792 65.3639 11.8039 53.7902ZM55.9995 55.9995C57.3708 54.6283 58.5642 53.1495 59.6414 51.6136L61.1161 53.1808L54.2973 59.7123L53.1555 58.5089C54.1373 57.7311 55.093 56.9061 55.9995 55.9995ZM55.6733 65.2052C55.0145 64.6608 54.6752 63.682 55.377 63.0048C55.377 63.0048 64.5839 54.187 64.6208 54.1517C65.9436 52.8848 68.0714 55.1695 66.7786 56.4083C66.7786 56.4083 57.7214 65.087 57.5433 65.2577C56.9711 65.8058 56.2142 65.652 55.6733 65.2052ZM82.9252 83.0839C82.0248 83.9461 80.7677 84.378 79.6048 84.3764C78.3627 84.3505 77.203 83.8408 76.3486 82.9483L60.7492 66.5127L67.5405 60.0055L83.0655 76.5014C84.8417 78.3552 84.7777 81.3077 82.9252 83.0839Z" fill="#002653"/>
<path d="M50.8278 33.2527C50.7551 37.6326 49.0919 41.8289 45.7509 45.3332C43.9161 47.2571 41.7435 48.6896 39.2622 49.6475C38.7254 49.855 38.3335 49.6904 38.1267 49.1475C37.1193 46.5031 36.1152 43.8574 35.1144 41.2105C34.8368 40.4787 34.5573 39.7477 34.2837 39.014C34.0869 38.4874 34.2656 38.1099 34.7803 37.8893C36.6955 37.0784 37.8653 35.6571 38.2116 33.5949C38.7082 30.6259 36.5384 27.7346 33.5518 27.3522C31.1211 27.0407 28.8298 28.2676 27.8248 30.4188C26.4703 33.3156 27.7973 36.686 30.7621 37.8776C31.0032 37.9743 31.201 38.1036 31.308 38.3504C31.415 38.5972 31.3667 38.8178 31.2782 39.0511C30.3653 41.4499 29.4543 43.8494 28.5454 46.2495C28.1797 47.2138 27.8144 48.1782 27.4496 49.1425C27.2496 49.6696 26.8401 49.855 26.3114 49.6497C23.5896 48.5932 21.256 46.975 19.3107 44.7952C17.196 42.413 15.786 39.6632 15.1404 36.5441C14.2939 32.4607 14.763 28.5216 16.624 24.7823C18.5319 20.949 21.4584 18.1386 25.3439 16.3462C27.9625 15.1352 30.7341 14.6226 33.6155 14.7546C36.9571 14.9105 40.1896 15.9929 42.9526 17.8811C45.7156 19.7692 47.9003 22.3889 49.263 25.4477C50.3027 27.7889 50.8116 30.2394 50.8278 33.2527ZM26.2613 47.8059C26.297 47.7154 26.3295 47.6431 26.3579 47.5676C27.0096 45.8499 27.6606 44.1321 28.311 42.4143C28.7138 41.3516 29.1124 40.2874 29.5219 39.2274C29.5833 39.0674 29.5648 38.9851 29.4036 38.911C29.2556 38.837 29.1133 38.7521 28.9779 38.6569C25.6599 36.5481 24.719 32.1579 26.8871 28.9108C29.3422 25.2348 34.3627 24.6408 37.6071 27.6451C40.7133 30.5192 40.5589 35.5007 37.273 38.1583C36.872 38.4824 36.4287 38.7541 35.9867 39.0624L39.2947 47.8072C45.2371 45.3024 50.3109 38.6506 49.0576 30.2819C47.8837 22.4615 41.2072 16.4412 33.057 16.3137C24.8495 16.1808 17.8755 21.9828 16.535 30.1399C15.1986 38.2727 19.9952 45.1311 26.2613 47.8059Z" fill="#002653" stroke="#002653"/>
</svg>
