<svg width="82" height="82" viewBox="0 0 82 82" fill="none" xmlns="http://www.w3.org/2000/svg">
<rect x="12" y="26.5" width="58" height="42" rx="1" fill="#F5C885"/>
<rect x="31" y="24" width="20" height="5" fill="white"/>
<path d="M22.0001 59.5C21.6001 58.7 22.5001 56.8333 23.0001 56L27 55C27.6667 55.8333 29.1 57.7 29.5 58.5C29.9 59.3 28.3333 61.1667 27.5 62C28.3333 63 30.2 65.2 31 66C31.8 66.8 31.6667 68.3333 31.5 69H19.5V68C19.6667 67.5 20.2 66.4 21 66C21.8 65.6 22.6667 63.5 23.0001 62.5C22.8334 61.8333 22.4001 60.3 22.0001 59.5Z" fill="white"/>
<path d="M21.6802 36.8214C21.2514 35.9643 22.2162 33.9643 22.7522 33.0714L27.0403 32C27.755 32.8929 29.2916 34.8929 29.7204 35.75C30.1492 36.6071 28.4697 38.6071 27.5763 39.5C28.4697 40.5714 30.4708 42.9286 31.3284 43.7857C32.1861 44.6429 32.0431 46.2857 31.8645 47H19V45.9286C19.1787 45.3929 19.7504 44.2143 20.6081 43.7857C21.4657 43.3571 22.3948 41.1071 22.7522 40.0357C22.5735 39.3214 22.109 37.6786 21.6802 36.8214Z" fill="white"/>
<path d="M53.0001 59.5C52.6001 58.7 53.5001 56.8333 54.0001 56L58 55C58.6667 55.8333 60.1 57.7 60.5 58.5C60.9 59.3 59.3333 61.1667 58.5 62C59.3333 63 61.2 65.2 62 66C62.8 66.8 62.6667 68.3333 62.5 69H50.5V68C50.6667 67.5 51.2 66.4 52 66C52.8 65.6 53.6667 63.5 54.0001 62.5C53.8334 61.8333 53.4001 60.3 53.0001 59.5Z" fill="white"/>
<path d="M52.6802 36.8214C52.2514 35.9643 53.2162 33.9643 53.7522 33.0714L58.0403 32C58.755 32.8929 60.2916 34.8929 60.7204 35.75C61.1492 36.6071 59.4697 38.6071 58.5763 39.5C59.4697 40.5714 61.4708 42.9286 62.3284 43.7857C63.1861 44.6429 63.0431 46.2857 62.8645 47H50V45.9286C50.1787 45.3929 50.7504 44.2143 51.6081 43.7857C52.4657 43.3571 53.3948 41.1071 53.7522 40.0357C53.5735 39.3214 53.109 37.6786 52.6802 36.8214Z" fill="white"/>
<path d="M80.7188 74.3125H76.8417C77.6553 73.2388 78.1562 71.9166 78.1562 70.4688V24.3438C78.1562 20.8113 75.2824 17.9375 71.75 17.9375H52.5312V14.0938C52.5312 11.9746 50.8067 10.25 48.6875 10.25V7.6875C48.6875 3.44784 45.2397 0 41 0C36.7603 0 33.3125 3.44784 33.3125 7.6875V10.25C31.1933 10.25 29.4688 11.9746 29.4688 14.0938V17.9375H10.25C6.71759 17.9375 3.84375 20.8113 3.84375 24.3438V70.4688C3.84375 71.9166 4.34472 73.2388 5.15831 74.3125H1.28125C0.572719 74.3125 0 74.8865 0 75.5938C0 79.1262 2.87384 82 6.40625 82H75.5938C79.1262 82 82 79.1262 82 75.5938C82 74.8865 81.4273 74.3125 80.7188 74.3125ZM51.25 69.1875C51.25 66.3611 53.5486 64.0625 56.375 64.0625C59.2014 64.0625 61.5 66.3611 61.5 69.1875H51.25ZM53.8125 58.9375C53.8125 57.5243 54.9618 56.375 56.375 56.375C57.7882 56.375 58.9375 57.5243 58.9375 58.9375C58.9375 60.3507 57.7882 61.5 56.375 61.5C54.9618 61.5 53.8125 60.3507 53.8125 58.9375ZM60.0817 62.4571C60.9555 61.5372 61.5 60.302 61.5 58.9375C61.5 56.1111 59.2014 53.8125 56.375 53.8125C53.5486 53.8125 51.25 56.1111 51.25 58.9375C51.25 60.302 51.7945 61.5372 52.6683 62.4571C50.2967 63.7678 48.6875 66.2919 48.6875 69.1875H42.2812V48.6875H70.4688V69.1875H64.0625C64.0625 66.2919 62.4533 63.7678 60.0817 62.4571ZM33.3125 69.1875C33.3125 66.2919 31.7032 63.7678 29.3317 62.4571C30.2055 61.5372 30.75 60.302 30.75 58.9375C30.75 56.1111 28.4514 53.8125 25.625 53.8125C22.7986 53.8125 20.5 56.1111 20.5 58.9375C20.5 60.302 21.0445 61.5372 21.9183 62.4571C19.5468 63.7678 17.9375 66.2919 17.9375 69.1875H11.5312V48.6875H39.7188V69.1875H33.3125ZM20.5 69.1875C20.5 66.3611 22.7986 64.0625 25.625 64.0625C28.4514 64.0625 30.75 66.3611 30.75 69.1875H20.5ZM23.0625 58.9375C23.0625 57.5243 24.2118 56.375 25.625 56.375C27.0382 56.375 28.1875 57.5243 28.1875 58.9375C28.1875 60.3507 27.0382 61.5 25.625 61.5C24.2118 61.5 23.0625 60.3507 23.0625 58.9375ZM33.3125 30.75H39.7188V46.125H33.3125C33.3125 43.2294 31.7032 40.7053 29.3317 39.3946C30.2055 38.4747 30.75 37.2395 30.75 35.875C30.75 33.0486 28.4514 30.75 25.625 30.75C22.7986 30.75 20.5 33.0486 20.5 35.875C20.5 37.2395 21.0445 38.4747 21.9183 39.3946C19.5468 40.7053 17.9375 43.2294 17.9375 46.125H11.5312V25.625H29.4688V26.9062C29.4688 29.0254 31.1933 30.75 33.3125 30.75ZM20.5 46.125C20.5 43.2986 22.7986 41 25.625 41C28.4514 41 30.75 43.2986 30.75 46.125H20.5ZM23.0625 35.875C23.0625 34.4618 24.2118 33.3125 25.625 33.3125C27.0382 33.3125 28.1875 34.4618 28.1875 35.875C28.1875 37.2882 27.0382 38.4375 25.625 38.4375C24.2118 38.4375 23.0625 37.2882 23.0625 35.875ZM53.8125 35.875C53.8125 34.4618 54.9618 33.3125 56.375 33.3125C57.7882 33.3125 58.9375 34.4618 58.9375 35.875C58.9375 37.2882 57.7882 38.4375 56.375 38.4375C54.9618 38.4375 53.8125 37.2882 53.8125 35.875ZM56.375 41C59.2014 41 61.5 43.2986 61.5 46.125H51.25C51.25 43.2986 53.5486 41 56.375 41ZM70.4688 46.125H64.0625C64.0625 43.2294 62.4533 40.7053 60.0817 39.3946C60.9555 38.4747 61.5 37.2395 61.5 35.875C61.5 33.0486 59.2014 30.75 56.375 30.75C53.5486 30.75 51.25 33.0486 51.25 35.875C51.25 37.2395 51.7945 38.4747 52.6683 39.3946C50.2967 40.7053 48.6875 43.2294 48.6875 46.125H42.2812V30.75H48.6875C50.8067 30.75 52.5312 29.0254 52.5312 26.9062V25.625H70.4688V46.125ZM35.875 7.6875C35.875 4.86106 38.1736 2.5625 41 2.5625C43.8264 2.5625 46.125 4.86106 46.125 7.6875V10.25H35.875V7.6875ZM32.0312 14.0938C32.0312 13.3878 32.6053 12.8125 33.3125 12.8125H48.6875C49.3947 12.8125 49.9688 13.3878 49.9688 14.0938V26.9062C49.9688 27.6122 49.3947 28.1875 48.6875 28.1875H33.3125C32.6053 28.1875 32.0312 27.6122 32.0312 26.9062V14.0938ZM6.40625 70.4688V24.3438C6.40625 22.2246 8.13081 20.5 10.25 20.5H29.4688V23.0625H10.25C9.54147 23.0625 8.96875 23.6365 8.96875 24.3438V70.4688C8.96875 71.176 9.54147 71.75 10.25 71.75H71.75C72.4585 71.75 73.0312 71.176 73.0312 70.4688V24.3438C73.0312 23.6365 72.4585 23.0625 71.75 23.0625H52.5312V20.5H71.75C73.8692 20.5 75.5938 22.2246 75.5938 24.3438V70.4688C75.5938 72.5879 73.8692 74.3125 71.75 74.3125H10.25C8.13081 74.3125 6.40625 72.5879 6.40625 70.4688ZM75.5938 79.4375H6.40625C4.7355 79.4375 3.31075 78.3664 2.78159 76.875H79.2184C78.6892 78.3664 77.2645 79.4375 75.5938 79.4375Z" fill="#002653"/>
<path d="M39.7188 22.8267V24.3438C39.7188 25.051 40.2915 25.625 41 25.625C41.7085 25.625 42.2812 25.051 42.2812 24.3438V22.8267C43.7688 22.2963 44.8438 20.8869 44.8438 19.2188C44.8438 17.0996 43.1192 15.375 41 15.375C38.8808 15.375 37.1562 17.0996 37.1562 19.2188C37.1562 20.8869 38.2312 22.2963 39.7188 22.8267ZM41 17.9375C41.7073 17.9375 42.2812 18.5128 42.2812 19.2188C42.2812 19.9247 41.7073 20.5 41 20.5C40.2928 20.5 39.7188 19.9247 39.7188 19.2188C39.7188 18.5128 40.2928 17.9375 41 17.9375Z" fill="#002653"/>
</svg>
