<svg width="64" height="64" viewBox="0 0 64 64" fill="none" xmlns="http://www.w3.org/2000/svg">
<rect width="64" height="64" fill="#E5E5E5"/>
<g clip-path="url(#clip0_2369_9404)">
<rect width="1925" height="8949" transform="translate(-765 -5090)" fill="white"/>
<rect width="64" height="64" rx="6" fill="#B85DFF"/>
<path d="M23.2909 40.9788H16.4688C15.3466 40.9788 14.26 40.8006 13.2447 40.48L13.9572 46.6966C13.975 46.8213 13.9928 46.9281 14.0284 47.0528C14.7588 49.315 16.8606 50.74 19.1228 50.74C19.675 50.74 20.2272 50.651 20.7794 50.4728C23.5759 49.5644 25.1256 46.5363 24.1994 43.7397L23.2909 40.9788Z" fill="white"/>
<path d="M55.6562 28.51H52.0938C51.1141 28.51 50.3125 29.3116 50.3125 30.2913C50.3125 31.2709 51.1141 32.0725 52.0938 32.0725H55.6562C56.6359 32.0725 57.4375 31.2709 57.4375 30.2913C57.4375 29.3116 56.6359 28.51 55.6562 28.51Z" fill="white"/>
<path d="M52.0938 22.6497C52.5569 22.6497 53.0022 22.4716 53.3584 22.1331L55.87 19.6216C56.5647 18.9269 56.5647 17.8047 55.87 17.11C55.1753 16.4153 54.0531 16.4153 53.3584 17.11L50.8469 19.6216C50.1522 20.3163 50.1522 21.4384 50.8469 22.1331C51.1853 22.4716 51.6306 22.6497 52.0938 22.6497Z" fill="white"/>
<path d="M53.3584 38.4672C52.6638 37.7725 51.5416 37.7725 50.8469 38.4672C50.1522 39.1619 50.1522 40.2841 50.8469 40.9787L53.3584 43.4903C53.7147 43.8466 54.16 44.0069 54.6231 44.0069C55.0863 44.0069 55.5316 43.8287 55.8878 43.4903C56.5825 42.7956 56.5825 41.6734 55.8878 40.9787L53.3584 38.4672Z" fill="white"/>
<path d="M41.4062 24.1638V36.4366C43.5259 35.2075 44.9688 32.9275 44.9688 30.3091C44.9688 27.6906 43.5259 25.3928 41.4062 24.1638Z" fill="white"/>
<path d="M38.7878 14.5272C38.2713 14.2066 37.6122 14.1709 37.06 14.4559L23.1841 21.385H16.4688C11.5525 21.385 7.5625 25.375 7.5625 30.2913C7.5625 35.2075 11.5525 39.1975 16.4688 39.1975H23.1663L37.0422 46.1266C37.2916 46.2513 37.5588 46.3225 37.8438 46.3225C38.1644 46.3225 38.5028 46.2334 38.7878 46.0553C39.3044 45.7347 39.625 45.1647 39.625 44.5413V16.0413C39.625 15.4178 39.3044 14.8478 38.7878 14.5272Z" fill="white"/>
</g>
<defs>
<clipPath id="clip0_2369_9404">
<rect width="1925" height="8949" fill="white" transform="translate(-765 -5090)"/>
</clipPath>
</defs>
</svg>
